[
    {
        "key": "group_56aaa3ff23e72",
        "title": "Publishing Schedule",
        "fields": [
            {
                "key": "field_56aaa4cf2565c",
                "label": "Publish date",
                "name": "publish_date",
                "type": "date_time_picker",
                "instructions": "",
                "required": 0,
                "conditional_logic": 0,
                "wrapper": {
                    "width": "",
                    "class": "",
                    "id": ""
                },
                "display_format": "d\/m\/Y g:i a",
                "return_format": "d\/m\/Y g:i a",
                "first_day": 1
            },
            {
                "key": "field_56aaa5102565d",
                "label": "Unpublish date",
                "name": "unpublish_date",
                "type": "date_time_picker",
                "instructions": "",
                "required": 0,
                "conditional_logic": 0,
                "wrapper": {
                    "width": "",
                    "class": "",
                    "id": ""
                },
                "display_format": "d\/m\/Y g:i a",
                "return_format": "d\/m\/Y g:i a",
                "first_day": 1
            }
        ],
        "location": [
            [
                {
                    "param": "post_type",
                    "operator": "==",
                    "value": "content_items"
                }
            ]
        ],
        "menu_order": 0,
        "position": "side",
        "style": "default",
        "label_placement": "top",
        "instruction_placement": "label",
        "hide_on_screen": "",
        "active": 1,
        "description": ""
    }
]